^D:\ŠKOLA\FIT VUT\4. SEMESTR\IZG - ZÁKLADY POČÍTAČOVÉ GRAFIKY\PROJEKT\BMP.C|D:\ŠKOLA\FIT VUT\4. SEMESTR\IZG - ZÁKLADY POČÍTAČOVÉ GRAFIKY\PROJEKT\COLOR.C|D:\ŠKOLA\FIT VUT\4. SEMESTR\IZG - ZÁKLADY POČÍTAČOVÉ GRAFIKY\PROJEKT\MAIN.C|D:\ŠKOLA\FIT VUT\4. SEMESTR\IZG - ZÁKLADY POČÍTAČOVÉ GRAFIKY\PROJEKT\MODEL.C|D:\ŠKOLA\FIT VUT\4. SEMESTR\IZG - ZÁKLADY POČÍTAČOVÉ GRAFIKY\PROJEKT\RENDER.C|D:\ŠKOLA\FIT VUT\4. SEMESTR\IZG - ZÁKLADY POČÍTAČOVÉ GRAFIKY\PROJEKT\STUDENT.C|D:\ŠKOLA\FIT VUT\4. SEMESTR\IZG - ZÁKLADY POČÍTAČOVÉ GRAFIKY\PROJEKT\TRANSFORM.C|D:\ŠKOLA\FIT VUT\4. SEMESTR\IZG - ZÁKLADY POČÍTAČOVÉ GRAFIKY\PROJEKT\VECTOR.C
D:\šKOLA\FIT VUT\4. SEMESTR\IZG - ZáKLADY POčíTAčOVé GRAFIKY\PROJEKT\DEBUG\VC120.PDB
D:\šKOLA\FIT VUT\4. SEMESTR\IZG - ZáKLADY POčíTAčOVé GRAFIKY\PROJEKT\DEBUG\VC120.IDB
D:\ŠKOLA\FIT VUT\4. SEMESTR\IZG - ZáKLADY POčíTAčOVé GRAFIKY\PROJEKT\DEBUG\COLOR.OBJ
D:\ŠKOLA\FIT VUT\4. SEMESTR\IZG - ZáKLADY POčíTAčOVé GRAFIKY\PROJEKT\DEBUG\MAIN.OBJ
D:\ŠKOLA\FIT VUT\4. SEMESTR\IZG - ZáKLADY POčíTAčOVé GRAFIKY\PROJEKT\DEBUG\MODEL.OBJ
D:\ŠKOLA\FIT VUT\4. SEMESTR\IZG - ZáKLADY POčíTAčOVé GRAFIKY\PROJEKT\DEBUG\RENDER.OBJ
D:\ŠKOLA\FIT VUT\4. SEMESTR\IZG - ZáKLADY POčíTAčOVé GRAFIKY\PROJEKT\DEBUG\STUDENT.OBJ
D:\ŠKOLA\FIT VUT\4. SEMESTR\IZG - ZáKLADY POčíTAčOVé GRAFIKY\PROJEKT\DEBUG\TRANSFORM.OBJ
D:\ŠKOLA\FIT VUT\4. SEMESTR\IZG - ZáKLADY POčíTAčOVé GRAFIKY\PROJEKT\DEBUG\VECTOR.OBJ
D:\ŠKOLA\FIT VUT\4. SEMESTR\IZG - ZáKLADY POčíTAčOVé GRAFIKY\PROJEKT\DEBUG\BMP.OBJ
^D:\ŠKOLA\FIT VUT\4. SEMESTR\IZG - ZÁKLADY POČÍTAČOVÉ GRAFIKY\PROJEKT\COLOR.C
D:\ŠKOLA\FIT VUT\4. SEMESTR\IZG - ZÁKLADY POČÍTAČOVÉ GRAFIKY\PROJEKT\DEBUG\VC120.PDB
^D:\ŠKOLA\FIT VUT\4. SEMESTR\IZG - ZÁKLADY POČÍTAČOVÉ GRAFIKY\PROJEKT\MAIN.C
D:\ŠKOLA\FIT VUT\4. SEMESTR\IZG - ZÁKLADY POČÍTAČOVÉ GRAFIKY\PROJEKT\DEBUG\VC120.PDB
D:\šKOLA\FIT VUT\4. SEMESTR\IZG - ZáKLADY POčíTAčOVé GRAFIKY\PROJEKT\DEBUG\VC120.IDB
D:\ŠKOLA\FIT VUT\4. SEMESTR\IZG - ZáKLADY POčíTAčOVé GRAFIKY\PROJEKT\DEBUG\MAIN.OBJ
^D:\ŠKOLA\FIT VUT\4. SEMESTR\IZG - ZÁKLADY POČÍTAČOVÉ GRAFIKY\PROJEKT\MODEL.C
D:\ŠKOLA\FIT VUT\4. SEMESTR\IZG - ZÁKLADY POČÍTAČOVÉ GRAFIKY\PROJEKT\DEBUG\VC120.PDB
^D:\ŠKOLA\FIT VUT\4. SEMESTR\IZG - ZÁKLADY POČÍTAČOVÉ GRAFIKY\PROJEKT\RENDER.C
D:\ŠKOLA\FIT VUT\4. SEMESTR\IZG - ZÁKLADY POČÍTAČOVÉ GRAFIKY\PROJEKT\DEBUG\VC120.PDB
^D:\ŠKOLA\FIT VUT\4. SEMESTR\IZG - ZÁKLADY POČÍTAČOVÉ GRAFIKY\PROJEKT\STUDENT.C
D:\ŠKOLA\FIT VUT\4. SEMESTR\IZG - ZÁKLADY POČÍTAČOVÉ GRAFIKY\PROJEKT\DEBUG\VC120.PDB
D:\šKOLA\FIT VUT\4. SEMESTR\IZG - ZáKLADY POčíTAčOVé GRAFIKY\PROJEKT\DEBUG\VC120.IDB
D:\ŠKOLA\FIT VUT\4. SEMESTR\IZG - ZáKLADY POčíTAčOVé GRAFIKY\PROJEKT\DEBUG\STUDENT.OBJ
^D:\ŠKOLA\FIT VUT\4. SEMESTR\IZG - ZÁKLADY POČÍTAČOVÉ GRAFIKY\PROJEKT\TRANSFORM.C
D:\ŠKOLA\FIT VUT\4. SEMESTR\IZG - ZÁKLADY POČÍTAČOVÉ GRAFIKY\PROJEKT\DEBUG\VC120.PDB
^D:\ŠKOLA\FIT VUT\4. SEMESTR\IZG - ZÁKLADY POČÍTAČOVÉ GRAFIKY\PROJEKT\VECTOR.C
D:\ŠKOLA\FIT VUT\4. SEMESTR\IZG - ZÁKLADY POČÍTAČOVÉ GRAFIKY\PROJEKT\DEBUG\VC120.PDB
^D:\ŠKOLA\FIT VUT\4. SEMESTR\IZG - ZÁKLADY POČÍTAČOVÉ GRAFIKY\PROJEKT\BMP.C
D:\ŠKOLA\FIT VUT\4. SEMESTR\IZG - ZÁKLADY POČÍTAČOVÉ GRAFIKY\PROJEKT\DEBUG\VC120.PDB
^D:\ŠKOLA\FIT VUT\4. SEMESTR\IZG - ZÁKLADY POČÍTAČOVÉ GRAFIKY\PROJEKT\MAIN.C|D:\ŠKOLA\FIT VUT\4. SEMESTR\IZG - ZÁKLADY POČÍTAČOVÉ GRAFIKY\PROJEKT\STUDENT.C
D:\šKOLA\FIT VUT\4. SEMESTR\IZG - ZáKLADY POčíTAčOVé GRAFIKY\PROJEKT\DEBUG\VC120.PDB
D:\šKOLA\FIT VUT\4. SEMESTR\IZG - ZáKLADY POčíTAčOVé GRAFIKY\PROJEKT\DEBUG\VC120.IDB
D:\ŠKOLA\FIT VUT\4. SEMESTR\IZG - ZáKLADY POčíTAčOVé GRAFIKY\PROJEKT\DEBUG\MAIN.OBJ
D:\ŠKOLA\FIT VUT\4. SEMESTR\IZG - ZáKLADY POčíTAčOVé GRAFIKY\PROJEKT\DEBUG\STUDENT.OBJ
